1 10 20
100 200 125
201 210 89
900 1000 174
91902 126885 354
424433 713503 509
12783 512498 470
99156 818974 509
414956 896837 525
114723 641914 509
588822 863438 525
267415 319600 407
110075 211743 383
274895 535528 470
151944 255264 443
242848 400647 441
17860 269239 443
49898 624011 470
247985 800259 509
251535 562224 470
301492 317427 384
307301 977460 525
767467 916481 525
77985 668353 509
32076 334665 443
809463 901052 525
27416 149848 375
204894 817172 509
197010 757540 509
303223 621662 470
741707 973026 525
651696 944643 525
495858 570970 470
2917 978990 525
497193 646669 509
57213 320542 443
98946 153206 375
69129 777854 509
319087 941561 525
498969 938162 525
89521 302437 443
9054 258070 443
838655 843267 388
408022 733383 509
244514 588719 470
75664 447980 449
360077 661512 509
118710 729658 509
659776 953886 525
193053 229299 386
281727 786068 509
396942 638555 509
247145 509505 449
323250 903370 525
81814 424085 449
784488 956211 525
141161 684269 509
254295 307665 407
106135 778344 509
120287 122892 336
478975 723442 509
548382 935547 525
667 824354 509
545200 834644 509
261374 939806 525
17574 304400 443
98486 880856 525
788024 861506 525
115603 516902 470
135241 604318 470
266036 580675 470
55362 902220 525
141416 714401 509
25924 455623 449
186769 825029 509
214251 826460 509
36648 922179 525
308189 598136 470
704124 789169 504
355842 383315 423
175889 434378 449
340990 986945 525
64300 998489 525
145450 437094 449
554644 741084 509
286766 799847 509
164978 206004 365
379664 542756 470
130530 236656 443
120738 159217 383
114146 741138 509
458270 540985 470
77389 953259 525
30872 223875 386
61034 511483 449
671059 676111 385
55747 429337 449
27646 852336 525
191985 754348 509
861717 974932 507
686684 770667 504
331031 935299 525
867580 903163 445
749362 839560 525
111468 620586 470
425048 822206 509
535602 855674 525
112562 558159 470
464215 482862 413
181316 842405 525
603655 964603 525
90693 829503 509
725391 878338 525
220364 725893 509
264826 650949 509
491320 811365 509
452012 825830 509
132145 937601 525
73671 903194 525
185966 687382 509
516440 571848 452
243117 486277 449
187665 222059 386
327028 333131 353
845902 852655 419
649366 975748 525
762469 941559 525
412430 490792 444
55669 861145 525
310264 375092 441
111893 555945 470
134835 205038 383
46927 674868 509
765925 810305 468
209183 646923 509
402996 739238 509
327493 716453 509
425116 855925 525
441601 688898 509
76912 992380 525
122778 976770 525
153376 315933 443
689570 996575 525
405964 720082 509
131378 572065 470
29231 409976 443
239717 779382 509
592446 880938 525
897136 988149 507
46686 181245 383
302472 470732 449
317200 427329 449
277846 887640 525
423051 961207 525
828973 851870 525
559278 781583 509
64939 820592 509
560375 607997 434
193513 791014 509
471395 911644 525
667888 748678 504
625269 856247 525
196207 321598 443
557102 641369 509
26797 343324 443
862033 980380 507
489545 620375 470
202736 670769 509
217941 618690 470
121263 919283 525
731529 831748 468
103029 350142 443
205522 661729 509
54037 355017 443
660669 848079 525
29157 533055 470
516747 697839 509
31687 811962 509
346575 584140 470
609793 842263 525
791883 830023 468
314893 722138 509
400456 674147 509
40477 661488 509
281048 558924 470
249858 726883 509
239514 577144 470
3324 341061 443
48086 797370 509
725508 917296 525
226458 925756 525
438937 836995 509
116886 620692 470
725468 879988 525
602661 930456 525
15710 294493 443
638264 999721 525
665800 756883 504
7921 35042 311
303103 961097 525
247498 909539 525
531596 634654 509
587851 950240 525
545726 775846 509
614076 929369 525
154901 982468 525
272331 850762 525
358535 617219 470
820954 902945 525
455750 729665 509
576724 978803 525
476566 796933 509
380774 582338 470
16808 475532 449
162136 717414 509
199811 796972 509
286747 741075 509
633728 820668 504
283769 531746 470
439281 565264 470
523641 808102 509
710418 918220 525
247353 548320 470
171748 233957 443
83390 393514 443
194292 344098 443
228921 322462 443
623661 947838 525
7202 646972 509
846088 960936 507
352710 796841 509
268107 854977 525
181623 212850 373
163249 664527 509
187295 640780 509
484909 938966 525
308317 339388 384
238708 559606 470
426585 895991 525
782689 821781 468
245436 414834 449
337025 701671 509
209084 630869 509
757374 849173 525
390812 625003 470
520077 784131 509
281683 493297 449
621270 984720 525
799920 807914 406
263598 762642 509
765744 871434 525
483038 942669 525
121128 205046 383
171549 928841 525
690796 831308 504
541549 847603 525
46650 477207 449
42213 530356 470
194151 884519 525
78056 437877 449
301437 542393 470
500473 968741 525
179907 496303 449
